…
```
## -- Conflicts ---------------------------------------- tidyverse_conflicts() --
## x dplyr::filter() masks stats::filter()
## x dplyr::lag()    masks stats::lag()
```

## Mammals Sleep
For this assignment, we are going to use built-in data on mammal sleep patterns.  

```r
msleep
```

```
## # A tibble: 83 x 11
##    name  genus vore  order conservation sleep_total sleep_rem sleep_cycle awake
##    <chr> <chr> <chr> <chr> <chr>              <dbl>     <dbl>       <dbl> <dbl>
##  1 Chee~ Acin~ carni Carn~ lc                  12.1      NA        NA      11.9
##  2 Owl ~ Aotus omni  Prim~ <NA>                17         1.8      NA       7  
##  3 Moun~ Aplo~ herbi Rode~ nt                  14.4       2.4      NA       9.6
##  4 Grea~ Blar~ omni  Sori~ lc                  14.9       2.3       0.133   9.1
##  5 Cow   Bos   herbi Arti~ domesticated         4         0.7       0.667  20  
##  6 Thre~ Brad~ herbi Pilo~ <NA>                14.4       2.2       0.767   9.6
##  7 Nort~ Call~ carni Carn~ vu                   8.7       1.4       0.383  15.3
##  8 Vesp~ Calo~ <NA>  Rode~ <NA>                 7        NA        NA      17  
##  9 Dog   Canis carni Carn~ domesticated        10.1       2.9       0.333  13.9
## 10 Roe ~ Capr~ herbi Arti~ lc                   3        NA        NA      21  
## # ... with 73 more rows, and 2 more variables: brainwt <dbl>, bodywt <dbl>
```
…
```
## starting httpd help server ... done
```

2. Put these data into a new object `sleep`. Make sure they are organized as a data frame.  


```r
sleep <- msleep
sleep
```

```
## # A tibble: 83 x 11
##    name  genus vore  order conservation sleep_total sleep_rem sleep_cycle awake
##    <chr> <chr> <chr> <chr> <chr>              <dbl>     <dbl>       <dbl> <dbl>
##  1 Chee~ Acin~ carni Carn~ lc                  12.1      NA        NA      11.9
##  2 Owl ~ Aotus omni  Prim~ <NA>                17         1.8      NA       7  
##  3 Moun~ Aplo~ herbi Rode~ nt                  14.4       2.4      NA       9.6
##  4 Grea~ Blar~ omni  Sori~ lc                  14.9       2.3       0.133   9.1
##  5 Cow   Bos   herbi Arti~ domesticated         4         0.7       0.667  20  
##  6 Thre~ Brad~ herbi Pilo~ <NA>                14.4       2.2       0.767   9.6
##  7 Nort~ Call~ carni Carn~ vu                   8.7       1.4       0.383  15.3
##  8 Vesp~ Calo~ <NA>  Rode~ <NA>                 7        NA        NA      17  
##  9 Dog   Canis carni Carn~ domesticated        10.1       2.9       0.333  13.9
## 10 Roe ~ Capr~ herbi Arti~ lc                   3        NA        NA      21  
## # ... with 73 more rows, and 2 more variables: brainwt <dbl>, bodywt <dbl>
```
…
```
## # A tibble: 1 x 11
##   name  genus vore  order conservation sleep_total sleep_rem sleep_cycle awake
##   <chr> <chr> <chr> <chr> <chr>              <dbl>     <dbl>       <dbl> <dbl>
## 1 Chee~ Acin~ carni Carn~ lc                  12.1        NA          NA  11.9
## # ... with 2 more variables: brainwt <dbl>, bodywt <dbl>
```

```r
sleep[,1]
```

```
## # A tibble: 83 x 1
##    name                      
##    <chr>                     
##  1 Cheetah                   
##  2 Owl monkey                
##  3 Mountain beaver           
##  4 Greater short-tailed shrew
##  5 Cow                       
##  6 Three-toed sloth          
##  7 Northern fur seal         
##  8 Vesper mouse              
##  9 Dog                       
## 10 Roe deer                  
## # ... with 73 more rows
```


7. We are interested in two groups; small and large mammals. Let's define small as less than or equal to 1kg body weight and large as greater than or equal to 200kg body weight. Make two new dataframes (large and small) based on these parameters.  

```r
small_mammals <- filter(sleep, bodywt<200)
small_mammals
```

```
## # A tibble: 76 x 11
##    name  genus vore  order conservation sleep_total sleep_rem sleep_cycle awake
##    <chr> <chr> <chr> <chr> <chr>              <dbl>     <dbl>       <dbl> <dbl>
##  1 Chee~ Acin~ carni Carn~ lc                  12.1      NA        NA      11.9
##  2 Owl ~ Aotus omni  Prim~ <NA>                17         1.8      NA       7  
##  3 Moun~ Aplo~ herbi Rode~ nt                  14.4       2.4      NA       9.6
##  4 Grea~ Blar~ omni  Sori~ lc                  14.9       2.3       0.133   9.1
##  5 Thre~ Brad~ herbi Pilo~ <NA>                14.4       2.2       0.767   9.6
##  6 Nort~ Call~ carni Carn~ vu                   8.7       1.4       0.383  15.3
##  7 Vesp~ Calo~ <NA>  Rode~ <NA>                 7        NA        NA      17  
##  8 Dog   Canis carni Carn~ domesticated        10.1       2.9       0.333  13.9
##  9 Roe ~ Capr~ herbi Arti~ lc                   3        NA        NA      21  
## 10 Goat  Capri herbi Arti~ lc                   5.3       0.6      NA      18.7
## # ... with 66 more rows, and 2 more variables: brainwt <dbl>, bodywt <dbl>
```
…
