…
```
## See spec(...) for full column specifications.
```

```r
fisheries
```

```
## # A tibble: 17,692 x 71
##    Country `Common name` `ISSCAAP group#` `ISSCAAP taxono~ `ASFIS species#`
##    <chr>   <chr>                    <dbl> <chr>            <chr>           
##  1 Albania Angelsharks,~               38 Sharks, rays, c~ 10903XXXXX      
##  2 Albania Atlantic bon~               36 Tunas, bonitos,~ 1750100101      
##  3 Albania Barracudas n~               37 Miscellaneous p~ 17710001XX      
##  4 Albania Blue and red~               45 Shrimps, prawns  2280203101      
##  5 Albania Blue whiting~               32 Cods, hakes, ha~ 1480403301      
##  6 Albania Bluefish                    37 Miscellaneous p~ 1702021301      
##  7 Albania Bogue                       33 Miscellaneous c~ 1703926101      
##  8 Albania Caramote pra~               45 Shrimps, prawns  2280100117      
##  9 Albania Catsharks, n~               38 Sharks, rays, c~ 10801003XX      
## 10 Albania Common cuttl~               57 Squids, cuttlef~ 3210200202      
## # ... with 17,682 more rows, and 66 more variables: `ASFIS species name` <chr>,
## #   `FAO major fishing area` <dbl>, Measure <chr>, `1950` <chr>, `1951` <chr>,
## #   `1952` <chr>, `1953` <chr>, `1954` <chr>, `1955` <chr>, `1956` <chr>,
## #   `1957` <chr>, `1958` <chr>, `1959` <chr>, `1960` <chr>, `1961` <chr>,
## #   `1962` <chr>, `1963` <chr>, `1964` <chr>, `1965` <chr>, `1966` <chr>,
## #   `1967` <chr>, `1968` <chr>, `1969` <chr>, `1970` <chr>, `1971` <chr>,
## #   `1972` <chr>, `1973` <chr>, `1974` <chr>, `1975` <chr>, `1976` <chr>,
## #   `1977` <chr>, `1978` <chr>, `1979` <chr>, `1980` <chr>, `1981` <chr>,
## #   `1982` <chr>, `1983` <chr>, `1984` <chr>, `1985` <chr>, `1986` <chr>,
…
8. Are these data tidy? Why or why not, and, how do you know? Use the appropriate pivot function to tidy the data. Remove the NA's. Put the tidy data frame into a new object `fisheries_tidy`.  

The data is untidy because the years are data so they should be values instead of names of columns.

```r
fisheries_tidy <- fisheries2 %>% 
  pivot_longer(-c("country", "commname", "ISSCAAP_spgroup", "ISSCAAP_spgroupname", "ASFIS_spcode", "ASFIS_sciname", "FAO_area", "unit"),
               names_to = "year",
               values_to = "catch",
               values_drop_na = TRUE)
fisheries_tidy
```

```
## # A tibble: 376,771 x 10
##    country commname ISSCAAP_spgroup ISSCAAP_spgroup~ ASFIS_spcode ASFIS_sciname
##    <fct>   <fct>              <dbl> <fct>            <fct>        <fct>        
##  1 Albania Angelsh~              38 Sharks, rays, c~ 10903XXXXX   Squatinidae  
##  2 Albania Angelsh~              38 Sharks, rays, c~ 10903XXXXX   Squatinidae  
##  3 Albania Angelsh~              38 Sharks, rays, c~ 10903XXXXX   Squatinidae  
##  4 Albania Angelsh~              38 Sharks, rays, c~ 10903XXXXX   Squatinidae  
##  5 Albania Angelsh~              38 Sharks, rays, c~ 10903XXXXX   Squatinidae  
##  6 Albania Angelsh~              38 Sharks, rays, c~ 10903XXXXX   Squatinidae  
##  7 Albania Angelsh~              38 Sharks, rays, c~ 10903XXXXX   Squatinidae  
##  8 Albania Angelsh~              38 Sharks, rays, c~ 10903XXXXX   Squatinidae  
##  9 Albania Angelsh~              38 Sharks, rays, c~ 10903XXXXX   Squatinidae  
## 10 Albania Angelsh~              38 Sharks, rays, c~ 10903XXXXX   Squatinidae  
## # ... with 376,761 more rows, and 4 more variables: FAO_area <dbl>, unit <fct>,
## #   year <chr>, catch <chr>
```
  

9. Refocus the data only to include country, ISSCAAP_spgroupname, ASFIS_spcode, ASFIS_sciname, year, and catch.

```r
fisheries_tidy2 <- fisheries_tidy %>% 
  select(country, ISSCAAP_spgroupname, ASFIS_spcode, ASFIS_sciname, year, catch)
fisheries_tidy2
```

```
## # A tibble: 376,771 x 6
##    country ISSCAAP_spgroupname     ASFIS_spcode ASFIS_sciname year  catch
##    <fct>   <fct>                   <fct>        <fct>         <chr> <chr>
##  1 Albania Sharks, rays, chimaeras 10903XXXXX   Squatinidae   1995  0 0  
##  2 Albania Sharks, rays, chimaeras 10903XXXXX   Squatinidae   1996  53   
##  3 Albania Sharks, rays, chimaeras 10903XXXXX   Squatinidae   1997  20   
##  4 Albania Sharks, rays, chimaeras 10903XXXXX   Squatinidae   1998  31   
##  5 Albania Sharks, rays, chimaeras 10903XXXXX   Squatinidae   1999  30   
##  6 Albania Sharks, rays, chimaeras 10903XXXXX   Squatinidae   2000  30   
##  7 Albania Sharks, rays, chimaeras 10903XXXXX   Squatinidae   2001  16   
##  8 Albania Sharks, rays, chimaeras 10903XXXXX   Squatinidae   2002  79   
##  9 Albania Sharks, rays, chimaeras 10903XXXXX   Squatinidae   2003  1    
## 10 Albania Sharks, rays, chimaeras 10903XXXXX   Squatinidae   2004  4    
## # ... with 376,761 more rows
```
…
12. Which country had the largest overall catch in the year 2000?

```r
fisheries_tidy2 %>%
  group_by(country) %>% 
  filter(year=="2000") %>% 
  summarize(catch = sum(catch,na.rm=T)) %>% 
  arrange(desc(catch))
```

```
## # A tibble: 193 x 2
##    country                     catch
##    <fct>                       <dbl>
##  1 Peru                     10625010
##  2 Japan                     4921013
##  3 United States of America  4692229
##  4 Chile                     4297928
##  5 Indonesia                 3761769
##  6 Russian Federation        3678828
##  7 Thailand                  2795719
##  8 India                     2760632
##  9 Norway                    2698506
## 10 Iceland                   1982369
## # ... with 183 more rows
```
Peru had the largest overall catch in the year 2000.

13. Which country caught the most sardines (_Sardina_) between the years 1990-2000?

```r
fisheries_tidy2 %>%
  group_by(country) %>% 
  filter(year >=1990 & year<=2000) %>% 
  filter(ASFIS_sciname == "Sardina pilchardus") %>%
  summarize(catch = sum(catch, na.rm=T)) %>% 
  arrange(desc(catch))
```

```
## # A tibble: 204 x 2
##    country              catch
##    <fct>                <dbl>
##  1 Morocco            4785190
##  2 Spain              1425317
##  3 Russian Federation 1035139
##  4 Portugal            926318
##  5 Ukraine             784730
##  6 Italy               377907
##  7 Algeria             311733
##  8 Turkey              273565
##  9 France              263871
## 10 Denmark             242017
## # ... with 194 more rows
```
…
16. In some cases, the taxonomy of the fish being caught is unclear. Make a new data frame called `coastal_fish` that shows the taxonomic composition of "Miscellaneous coastal fishes" within the ISSCAAP_spgroupname column.

```r
coastal_fish <- fisheries_tidy2 %>%
  filter(ISSCAAP_spgroupname == "Miscellaneous coastal fishes")
coastal_fish
```

```
## # A tibble: 69,821 x 6
##    country ISSCAAP_spgroupname          ASFIS_spcode ASFIS_sciname year  catch
##    <fct>   <fct>                        <fct>        <fct>         <chr> <dbl>
##  1 Albania Miscellaneous coastal fishes 1703926101   Boops boops   1983    559
##  2 Albania Miscellaneous coastal fishes 1703926101   Boops boops   1984    392
##  3 Albania Miscellaneous coastal fishes 1703926101   Boops boops   1985    406
##  4 Albania Miscellaneous coastal fishes 1703926101   Boops boops   1986    499
##  5 Albania Miscellaneous coastal fishes 1703926101   Boops boops   1987    564
##  6 Albania Miscellaneous coastal fishes 1703926101   Boops boops   1988    724
##  7 Albania Miscellaneous coastal fishes 1703926101   Boops boops   1989    583
##  8 Albania Miscellaneous coastal fishes 1703926101   Boops boops   1990    754
##  9 Albania Miscellaneous coastal fishes 1703926101   Boops boops   1991    283
## 10 Albania Miscellaneous coastal fishes 1703926101   Boops boops   1992    196
## # ... with 69,811 more rows
```
…
