…
**5. How has life expectancy changed between 1952-2007 for each continent? Try using `geom_line()` for this, including all continents on the same  plot.**

```r
gapminder %>% 
  select(continent, year, lifeExp) %>% 
  group_by(continent, year) %>% 
    summarize(mean_lifeExp=mean(lifeExp))
```

```
## # A tibble: 60 x 3
## # Groups:   continent [5]
##    continent  year mean_lifeExp
##    <fct>     <int>        <dbl>
##  1 Africa     1952         39.1
##  2 Africa     1957         41.3
##  3 Africa     1962         43.3
##  4 Africa     1967         45.3
##  5 Africa     1972         47.5
##  6 Africa     1977         49.6
##  7 Africa     1982         51.6
##  8 Africa     1987         53.3
##  9 Africa     1992         53.6
## 10 Africa     1997         53.6
## # ... with 50 more rows
```
…
#### I would characterize the relationship as a logarithmic curve or proportional to each other.

**8. Which countries have had the largest population growth since 1952?**

```r
gapminder %>% 
  select(country, year, pop) %>%
  group_by(country) %>% 
  summarize(pop_growth = last(pop)-first(pop)) %>% 
  arrange(desc(pop_growth))
```

```
## # A tibble: 142 x 2
##    country       pop_growth
##    <fct>              <int>
##  1 China          762419569
##  2 India          738396331
##  3 United States  143586947
##  4 Indonesia      141495000
##  5 Brazil         133408087
##  6 Pakistan       127924057
##  7 Bangladesh     103561480
##  8 Nigeria        101912068
##  9 Mexico          78556574
## 10 Philippines     68638596
## # ... with 132 more rows
```
…
